Trabajos Individuales
…
## [1] "m"

once_genero <- once_tokenizado

once_genero %>% 
  #select(autor_name, autor_id) %>% 
  group_by(autor_id) %>% 
  nest() %>% 
  mutate(genero = map2(data, autor_id,
                       .f =  ~ get_gender2(nombre = .x$autor_name,
                                           lista_nombres = df$nombre))) %>% 
  unnest(cols = c(data, genero))

## # A tibble: 3,555 x 24
## # Groups:   autor_id [381]
##    autor_id  place_name  google_id place_id reviews_link reviews_per_sco~ rating
##    <chr>     <chr>       <chr>     <chr>    <chr>        <chr>             <dbl>
##  1 11709066~ Estacin O~ 0x95bcca~ ChIJacC~ https://sea~ "{\"1\": 75, \"~    3.8
##  2 11709066~ Estacin O~ 0x95bcca~ ChIJacC~ https://sea~ "{\"1\": 75, \"~    3.8
##  3 11709066~ Estacin O~ 0x95bcca~ ChIJacC~ https://sea~ "{\"1\": 75, \"~    3.8
##  4 11709066~ Estacin O~ 0x95bcca~ ChIJacC~ https://sea~ "{\"1\": 75, \"~    3.8
##  5 11239714~ Estacin O~ 0x95bcca~ ChIJacC~ https://sea~ "{\"1\": 75, \"~    3.8
##  6 11239714~ Estacin O~ 0x95bcca~ ChIJacC~ https://sea~ "{\"1\": 75, \"~    3.8
##  7 11239714~ Estacin O~ 0x95bcca~ ChIJacC~ https://sea~ "{\"1\": 75, \"~    3.8
##  8 11239714~ Estacin O~ 0x95bcca~ ChIJacC~ https://sea~ "{\"1\": 75, \"~    3.8
##  9 11239714~ Estacin O~ 0x95bcca~ ChIJacC~ https://sea~ "{\"1\": 75, \"~    3.8
## 10 11727278~ Estacin O~ 0x95bcca~ ChIJacC~ https://sea~ "{\"1\": 75, \"~    3.8
## # ... with 3,545 more rows, and 17 more variables: autor_link <chr>,
## #   autor_name <chr>, autor_image <chr>, review_img_url <chr>,
## #   owner_answer <lgl>, owner_answer_timestamp <lgl>,
## #   owner_answer_timestamp_datetime_utc <lgl>, review_link <chr>,
## #   review_rating <dbl>, review_timestamp <dbl>, review_datetime_utc <chr>,
## #   review_likes <dbl>, reviews_id <chr>, ano <chr>, mes <chr>, word <chr>,
## #   genero <chr>
…
